%YAML 1.1
%TAG !u! tag:unity3d.com,2011:
--- !u!78 &1
TagManager:
  serializedVersion: 2
  tags:
  - Light
  - Floor
  - Lever
  - Door
  - Character
  - DoorEnter
  - Lamp
  - Ladder
  - Switch
  - OnesideFloor
  layers:
  - Default
  - TransparentFX
  - Ignore Raycast
  - 
  - Water
  - UI
  - 
  - 
  - Enabled
  - Light
  - Character
  - Disabled
  - Dark
  - Check
  - LightInfo
  - Physics
  - 
  - 
  - 
  - 
  - 
  - 
  - 
  - 
  - 
  - 
  - 
  - 
  - 
  - 
  - 
  - 
  m_SortingLayers:
  - name: Default
    uniqueID: 0
    locked: 0
  - name: Dark
    uniqueID: 556923425
    locked: 0
  - name: Background
    uniqueID: 2898145807
    locked: 0
  - name: Light
    uniqueID: 461819329
    locked: 0
  - name: Open
    uniqueID: 4264734457
    locked: 0
  - name: OnesideFloor
    uniqueID: 489115377
    locked: 0
  - name: Lamp
    uniqueID: 1092025713
    locked: 0
